%!PS-Adobe-3.0 EPSF-3.0
%%Title: /home/bene/prj/pyformex/pyformex-org.eps
%%Creator: GL2PS 1.3.2, (C) 1999-2006 Christophe Geuzaine (geuz@geuz.org)
%%For: pyFormex 0.7.4-a1 (http://pyformex.berlios.de)
%%CreationDate: Thu Mar  5 17:09:27 2009
%%LanguageLevel: 3
%%DocumentData: Clean7Bit
%%Pages: 1
%%BoundingBox: 0 0 1216 274
%%EndComments
%%BeginProlog
/gl2psdict 64 dict def gl2psdict begin
0 setlinecap 0 setlinejoin
/tryPS3shading true def % set to false to force subdivision
/rThreshold 0.064 def % red component subdivision threshold
/gThreshold 0.034 def % green component subdivision threshold
/bThreshold 0.1 def % blue component subdivision threshold
/BD { bind def } bind def
/C  { setrgbcolor } BD
/G  { 0.082 mul exch 0.6094 mul add exch 0.3086 mul add neg 1.0 add setgray } BD
/W  { setlinewidth } BD
/FC { findfont exch /SH exch def SH scalefont setfont } BD
/SW { dup stringwidth pop } BD
/S  { FC moveto show } BD
/SBC{ FC moveto SW -2 div 0 rmoveto show } BD
/SBR{ FC moveto SW neg 0 rmoveto show } BD
/SCL{ FC moveto 0 SH -2 div rmoveto show } BD
/SCC{ FC moveto SW -2 div SH -2 div rmoveto show } BD
/SCR{ FC moveto SW neg SH -2 div rmoveto show } BD
/STL{ FC moveto 0 SH neg rmoveto show } BD
/STC{ FC moveto SW -2 div SH neg rmoveto show } BD
/STR{ FC moveto SW neg SH neg rmoveto show } BD
/FCT { FC translate 0 0 } BD
/SR  { gsave FCT moveto rotate show grestore } BD
/SBCR{ gsave FCT moveto rotate SW -2 div 0 rmoveto show grestore } BD
/SBRR{ gsave FCT moveto rotate SW neg 0 rmoveto show grestore } BD
/SCLR{ gsave FCT moveto rotate 0 SH -2 div rmoveto show grestore} BD
/SCCR{ gsave FCT moveto rotate SW -2 div SH -2 div rmoveto show grestore} BD
/SCRR{ gsave FCT moveto rotate SW neg SH -2 div rmoveto show grestore} BD
/STLR{ gsave FCT moveto rotate 0 SH neg rmoveto show grestore } BD
/STCR{ gsave FCT moveto rotate SW -2 div SH neg rmoveto show grestore } BD
/STRR{ gsave FCT moveto rotate SW neg SH neg rmoveto show grestore } BD
/P  { newpath 0.0 360.0 arc closepath fill } BD
/LS { newpath moveto } BD
/L  { lineto } BD
/LE { lineto stroke } BD
/T  { newpath moveto lineto lineto closepath fill } BD
/STshfill {
      /b1 exch def /g1 exch def /r1 exch def /y1 exch def /x1 exch def
      /b2 exch def /g2 exch def /r2 exch def /y2 exch def /x2 exch def
      /b3 exch def /g3 exch def /r3 exch def /y3 exch def /x3 exch def
      gsave << /ShadingType 4 /ColorSpace [/DeviceRGB]
      /DataSource [ 0 x1 y1 r1 g1 b1 0 x2 y2 r2 g2 b2 0 x3 y3 r3 g3 b3 ] >>
      shfill grestore } BD
/Tm { 3 -1 roll 8 -1 roll 13 -1 roll add add 3 div
      3 -1 roll 7 -1 roll 11 -1 roll add add 3 div
      3 -1 roll 6 -1 roll 9 -1 roll add add 3 div C T } BD
/STsplit {
      4 index 15 index add 0.5 mul
      4 index 15 index add 0.5 mul
      4 index 15 index add 0.5 mul
      4 index 15 index add 0.5 mul
      4 index 15 index add 0.5 mul
      5 copy 5 copy 25 15 roll
      9 index 30 index add 0.5 mul
      9 index 30 index add 0.5 mul
      9 index 30 index add 0.5 mul
      9 index 30 index add 0.5 mul
      9 index 30 index add 0.5 mul
      5 copy 5 copy 35 5 roll 25 5 roll 15 5 roll
      4 index 10 index add 0.5 mul
      4 index 10 index add 0.5 mul
      4 index 10 index add 0.5 mul
      4 index 10 index add 0.5 mul
      4 index 10 index add 0.5 mul
      5 copy 5 copy 40 5 roll 25 5 roll 15 5 roll 25 5 roll
      STnoshfill STnoshfill STnoshfill STnoshfill } BD
/STnoshfill {
      2 index 8 index sub abs rThreshold gt
      { STsplit }
      { 1 index 7 index sub abs gThreshold gt
        { STsplit }
        { dup 6 index sub abs bThreshold gt
          { STsplit }
          { 2 index 13 index sub abs rThreshold gt
            { STsplit }
            { 1 index 12 index sub abs gThreshold gt
              { STsplit }
              { dup 11 index sub abs bThreshold gt
                { STsplit }
                { 7 index 13 index sub abs rThreshold gt
                  { STsplit }
                  { 6 index 12 index sub abs gThreshold gt
                    { STsplit }
                    { 5 index 11 index sub abs bThreshold gt
                      { STsplit }
                      { Tm }
                      ifelse }
                    ifelse }
                  ifelse }
                ifelse }
              ifelse }
            ifelse }
          ifelse }
        ifelse }
      ifelse } BD
tryPS3shading
{ /shfill where
  { /ST { STshfill } BD }
  { /ST { STnoshfill } BD }
  ifelse }
{ /ST { STnoshfill } BD }
ifelse
end
%%EndProlog
%%BeginSetup
/DeviceRGB setcolorspace
gl2psdict begin
%%EndSetup
%%Page: 1 1
%%BeginPageSetup
%%EndPageSetup
mark
gsave
1.0 1.0 scale
1 0.2 0.4 C
98.662 146.884 98.4177 188.336 102.16 187.288 T
99.4714 144.926 98.662 146.884 102.16 187.288 T
99.9569 142.832 99.4714 144.926 102.16 187.288 T
100.119 140.601 99.9569 142.832 102.16 187.288 T
102.44 93.5306 100.119 140.601 102.16 187.288 T
105.824 185.941 102.44 93.5306 102.16 187.288 T
94.5979 189.085 94.3891 151.85 92.5763 152.983 T
96.0724 150.394 94.3891 151.85 94.5979 189.085 T
98.4177 188.336 96.0724 150.394 94.5979 189.085 T
97.5291 148.707 96.0724 150.394 98.4177 188.336 T
98.662 146.884 97.5291 148.707 98.4177 188.336 T
88.5623 154.278 86.7252 189.684 90.7004 189.534 T
90.6341 153.792 88.5623 154.278 90.7004 189.534 T
92.5763 152.983 90.6341 153.792 90.7004 189.534 T
94.5979 189.085 92.5763 152.983 90.7004 189.534 T
80.9422 153.582 79.9734 189.298 86.7252 189.684 T
83.4768 154.225 80.9422 153.582 86.7252 189.684 T
86.3611 154.44 83.4768 154.225 86.7252 189.684 T
88.5623 154.278 86.3611 154.44 86.7252 189.684 T
74.2559 146.609 73.6052 188.14 79.9734 189.298 T
75.4358 149.078 74.2559 146.609 79.9734 189.298 T
76.9216 151.009 75.4358 149.078 79.9734 189.298 T
78.7571 152.51 76.9216 151.009 79.9734 189.298 T
80.9422 153.582 78.7571 152.51 79.9734 189.298 T
72.1583 130.243 67.6207 186.21 73.6052 188.14 T
72.2894 135.308 72.1583 130.243 73.6052 188.14 T
72.6827 139.724 72.2894 135.308 73.6052 188.14 T
73.3383 143.491 72.6827 139.724 73.6052 188.14 T
74.2559 146.609 73.3383 143.491 73.6052 188.14 T
67.6207 186.21 72.1583 130.243 72.1583 46.442 T
62.0197 183.507 67.6207 186.21 72.1583 46.442 T
56.8023 180.033 62.0197 183.507 72.1583 46.442 T
52.085 175.878 56.8023 180.033 72.1583 46.442 T
47.9844 171.131 52.085 175.878 72.1583 46.442 T
44.5005 165.794 47.9844 171.131 72.1583 46.442 T
41.6332 159.866 44.5005 165.794 72.1583 46.442 T
39.3826 153.347 41.6332 159.866 72.1583 46.442 T
38.8347 151.502 39.3826 153.347 72.1583 46.442 T
38.3565 149.592 38.8347 151.502 72.1583 46.442 T
37.9478 147.618 38.3565 149.592 72.1583 46.442 T
37.6087 145.578 37.9478 147.618 72.1583 46.442 T
37.3392 143.474 37.6087 145.578 72.1583 46.442 T
37.128 141.199 37.3392 143.474 72.1583 46.442 T
36.9637 138.644 37.128 141.199 72.1583 46.442 T
36.8464 135.812 36.9637 138.644 72.1583 46.442 T
36.776 132.701 36.8464 135.812 72.1583 46.442 T
36.7524 129.312 36.776 132.701 72.1583 46.442 T
36.7524 46.442 36.7524 129.312 72.1583 46.442 T
135.945 144.498 136.091 140.601 135.521 132.584 T
135.508 148.322 135.945 144.498 135.521 132.584 T
134.78 152.073 135.508 148.322 135.521 132.584 T
133.812 125.073 134.78 152.073 135.521 132.584 T
133.812 125.073 133.76 155.751 134.78 152.073 T
132.449 159.356 133.76 155.751 133.812 125.073 T
130.963 118.069 132.449 159.356 133.812 125.073 T
130.865 162.842 132.449 159.356 130.963 118.069 T
129.025 166.161 130.865 162.842 130.963 118.069 T
129.025 166.161 130.963 118.069 126.975 111.571 T
126.928 169.313 129.025 166.161 126.975 111.571 T
124.577 172.298 126.928 169.313 126.975 111.571 T
121.969 175.117 124.577 172.298 126.975 111.571 T
121.848 105.58 121.969 175.117 126.975 111.571 T
121.848 105.58 119.057 177.816 121.969 175.117 T
115.987 180.248 119.057 177.816 121.848 105.58 T
115.893 100.416 115.987 180.248 121.848 105.58 T
112.758 182.413 115.987 180.248 115.893 100.416 T
109.424 96.3994 112.758 182.413 115.893 100.416 T
109.37 184.31 112.758 182.413 109.424 96.3994 T
105.824 185.941 109.37 184.31 109.424 96.3994 T
99.9626 138.318 100.119 140.601 102.44 93.5306 T
99.494 136.192 99.9626 138.318 102.44 93.5306 T
98.713 134.226 99.494 136.192 102.44 93.5306 T
97.6197 132.418 98.713 134.226 102.44 93.5306 T
96.214 130.769 97.6197 132.418 102.44 93.5306 T
94.941 91.8092 96.214 130.769 102.44 93.5306 T
94.5703 129.356 96.214 130.769 94.941 91.8092 T
92.7633 128.257 94.5703 129.356 94.941 91.8092 T
90.7927 127.472 92.7633 128.257 94.941 91.8092 T
88.6586 127.001 90.7927 127.472 94.941 91.8092 T
86.9276 91.2355 88.6586 127.001 94.941 91.8092 T
85.9484 91.2468 85.7404 126.861 86.3611 126.844 T
86.9276 91.2355 85.9484 91.2468 86.3611 126.844 T
88.6586 127.001 86.9276 91.2355 86.3611 126.844 T
84.7587 91.2808 84.465 126.997 85.1083 126.912 T
85.9484 91.2468 84.7587 91.2808 85.1083 126.912 T
85.7404 126.861 85.9484 91.2468 85.1083 126.912 T
83.3587 91.3374 83.1442 127.268 83.8102 127.116 T
84.7587 91.2808 83.3587 91.3374 83.8102 127.116 T
84.465 126.997 84.7587 91.2808 83.8102 127.116 T
81.7482 91.4167 81.7198 127.67 82.4523 127.454 T
83.3587 91.3374 81.7482 91.4167 82.4523 127.454 T
83.1442 127.268 83.3587 91.3374 82.4523 127.454 T
81.7482 91.4167 80.947 127.917 81.7198 127.67 T
80.1337 128.194 80.947 127.917 81.7482 91.4167 T
79.9273 91.5187 80.1337 128.194 81.7482 91.4167 T
79.2799 128.503 80.1337 128.194 79.9273 91.5187 T
79.2799 91.5996 79.2799 128.503 79.9273 91.5187 T
109.424 96.3994 102.44 93.5306 105.824 185.941 T
147.624 123.29 147.3 187.054 183.636 187.054 T
148.598 117 147.624 123.29 183.636 187.054 T
150.22 111.371 148.598 117 183.636 187.054 T
152.492 106.405 150.22 111.371 183.636 187.054 T
155.413 102.1 152.492 106.405 183.636 187.054 T
158.922 98.5238 155.413 102.1 183.636 187.054 T
162.961 95.7423 158.922 98.5238 183.636 187.054 T
167.53 93.7555 162.961 95.7423 183.636 187.054 T
172.627 92.5635 167.53 93.7555 183.636 187.054 T
178.254 92.1661 172.627 92.5635 183.636 187.054 T
180.409 92.2462 178.254 92.1661 183.636 187.054 T
182.501 92.4866 180.409 92.2462 183.636 187.054 T
183.636 142.503 182.501 92.4866 183.636 187.054 T
202.274 52.0341 196.911 96.3994 197.475 100.38 T
197.475 142.503 202.274 52.0341 197.475 100.38 T
197.411 139.743 197.475 142.503 197.475 100.38 T
197.219 137.353 197.411 139.743 197.475 100.38 T
196.899 135.334 197.219 137.353 197.475 100.38 T
196.452 133.685 196.899 135.334 197.475 100.38 T
195.876 132.407 196.452 133.685 197.475 100.38 T
195.714 98.7852 195.876 132.407 197.475 100.38 T
195.714 98.7852 195.152 131.424 195.876 132.407 T
194.258 130.659 195.152 131.424 195.714 98.7852 T
193.927 97.3665 194.258 130.659 195.714 98.7852 T
193.194 130.113 194.258 130.659 193.927 97.3665 T
192.114 96.1243 193.194 130.113 193.927 97.3665 T
191.959 129.785 193.194 130.113 192.114 96.1243 T
190.555 129.676 191.959 129.785 192.114 96.1243 T
190.275 95.0585 190.555 129.676 192.114 96.1243 T
189.151 129.782 190.555 129.676 190.275 95.0585 T
188.411 94.1691 189.151 129.782 190.275 95.0585 T
187.917 130.1 189.151 129.782 188.411 94.1691 T
186.853 130.63 187.917 130.1 188.411 94.1691 T
186.853 130.63 188.411 94.1691 186.503 93.448 T
185.959 131.372 186.853 130.63 186.503 93.448 T
185.234 132.326 185.959 131.372 186.503 93.448 T
184.659 133.582 185.234 132.326 186.503 93.448 T
184.533 92.8872 184.659 133.582 186.503 93.448 T
184.211 135.227 184.659 133.582 184.533 92.8872 T
183.892 137.262 184.211 135.227 184.533 92.8872 T
183.7 139.688 183.892 137.262 184.533 92.8872 T
183.636 142.503 183.7 139.688 184.533 92.8872 T
182.501 92.4866 183.636 142.503 184.533 92.8872 T
202.274 52.0341 197.475 187.054 232.88 187.054 T
209.795 56.5094 202.274 52.0341 232.88 187.054 T
216.634 62.2634 209.795 56.5094 232.88 187.054 T
222.483 69.0079 216.634 62.2634 232.88 187.054 T
227.032 76.4548 222.483 69.0079 232.88 187.054 T
230.281 84.6043 227.032 76.4548 232.88 187.054 T
232.231 93.4561 230.281 84.6043 232.88 187.054 T
232.88 103.01 232.231 93.4561 232.88 187.054 T
202.274 52.0341 195.869 92.7763 196.911 96.3994 T
194.348 89.5109 195.869 92.7763 202.274 52.0341 T
194.072 48.8375 194.348 89.5109 202.274 52.0341 T
192.347 86.6032 194.348 89.5109 194.072 48.8375 T
189.867 84.0531 192.347 86.6032 194.072 48.8375 T
185.189 46.9195 183.756 80.2593 186.98 81.9191 T
194.072 48.8375 185.189 46.9195 186.98 81.9191 T
189.867 84.0531 194.072 48.8375 186.98 81.9191 T
176.298 78.3623 175.624 46.2802 174.206 46.302 T
185.189 46.9195 175.624 46.2802 176.298 78.3623 T
180.195 79.0737 185.189 46.9195 176.298 78.3623 T
183.756 80.2593 185.189 46.9195 180.195 79.0737 T
172.798 46.3676 176.298 78.3623 174.206 46.302 T
172.063 78.1252 176.298 78.3623 172.798 46.3676 T
171.402 46.4768 172.063 78.1252 172.798 46.3676 T
170.944 78.1511 172.063 78.1252 171.402 46.4768 T
170.018 46.6298 170.944 78.1511 171.402 46.4768 T
169.852 78.2288 170.944 78.1511 170.018 46.6298 T
168.788 78.3583 169.852 78.2288 170.018 46.6298 T
168.644 46.8264 168.788 78.3583 170.018 46.6298 T
167.752 78.5395 168.788 78.3583 168.644 46.8264 T
167.272 47.07 167.752 78.5395 168.644 46.8264 T
166.742 78.7726 167.752 78.5395 167.272 47.07 T
165.893 47.3638 166.742 78.7726 167.272 47.07 T
165.745 79.0607 166.742 78.7726 165.893 47.3638 T
164.742 79.4071 165.745 79.0607 165.893 47.3638 T
164.505 47.7078 164.742 79.4071 165.893 47.3638 T
163.734 79.8117 164.742 79.4071 164.505 47.7078 T
163.109 48.1019 163.734 79.8117 164.505 47.7078 T
162.722 80.2746 163.734 79.8117 163.109 48.1019 T
161.705 80.7958 162.722 80.2746 163.109 48.1019 T
161.705 48.5462 161.705 80.7958 163.109 48.1019 T
197.475 187.054 202.274 52.0341 197.475 142.503 T
147.3 130.243 147.3 187.054 147.624 123.29 T
334.985 214.535 338.221 211.018 341.242 207.083 T
331.534 217.635 334.985 214.535 341.242 207.083 T
327.867 220.317 331.534 217.635 341.242 207.083 T
323.985 222.581 327.867 220.317 341.242 207.083 T
319.866 224.431 323.985 222.581 341.242 207.083 T
315.491 225.87 319.866 224.431 341.242 207.083 T
310.857 226.898 315.491 225.87 341.242 207.083 T
307.981 182.926 310.857 226.898 341.242 207.083 T
305.967 227.514 305.755 186.612 304.887 187.536 T
306.56 185.536 305.755 186.612 305.967 227.514 T
310.857 226.898 306.56 185.536 305.967 227.514 T
307.302 184.307 306.56 185.536 310.857 226.898 T
307.981 182.926 307.302 184.307 310.857 226.898 T
301.87 189.422 300.819 227.72 305.967 227.514 T
302.952 188.934 301.87 189.422 305.967 227.514 T
303.955 188.308 302.952 188.934 305.967 227.514 T
304.887 187.536 303.955 188.308 305.967 227.514 T
292.119 187.094 291.926 227.15 300.819 227.72 T
292.93 188.158 292.119 187.094 300.819 227.72 T
293.939 188.985 292.93 188.158 300.819 227.72 T
295.145 189.575 293.939 188.985 300.819 227.72 T
296.548 189.93 295.145 189.575 300.819 227.72 T
298.149 190.048 296.548 189.93 300.819 227.72 T
299.468 189.978 298.149 190.048 300.819 227.72 T
300.709 189.77 299.468 189.978 300.819 227.72 T
301.87 189.422 300.709 189.77 300.819 227.72 T
290.41 178.898 283.763 225.441 291.926 227.15 T
290.624 181.598 290.41 178.898 291.926 227.15 T
290.98 183.864 290.624 181.598 291.926 227.15 T
291.479 185.696 290.98 183.864 291.926 227.15 T
292.119 187.094 291.479 185.696 291.926 227.15 T
290.339 175.764 290.339 92.1661 283.763 225.441 T
290.339 127.572 290.339 92.1661 290.339 175.764 T
290.339 163.018 290.339 127.572 290.339 175.764 T
302.64 127.572 290.339 127.572 290.339 163.018 T
302.64 163.018 302.64 127.572 290.339 163.018 T
276.33 222.592 283.763 225.441 290.339 92.1661 T
269.626 218.604 276.33 222.592 290.339 92.1661 T
263.653 213.477 269.626 218.604 290.339 92.1661 T
258.606 207.417 263.653 213.477 290.339 92.1661 T
254.68 200.632 258.606 207.417 290.339 92.1661 T
251.876 193.122 254.68 200.632 290.339 92.1661 T
250.193 184.886 251.876 193.122 290.339 92.1661 T
249.632 175.926 250.193 184.886 290.339 92.1661 T
249.632 92.1661 249.632 175.926 290.339 92.1661 T
290.41 178.898 290.339 175.764 283.763 225.441 T
401.367 187.211 399.065 139.509 398.911 141.601 T
401.445 91.9832 399.065 139.509 401.367 187.211 T
405.074 185.82 401.445 91.9832 401.367 187.211 T
405.155 93.3598 401.445 91.9832 405.074 185.82 T
408.675 184.14 405.155 93.3598 405.074 185.82 T
408.752 95.0196 405.155 93.3598 408.675 184.14 T
412.112 182.194 408.752 95.0196 408.675 184.14 T
412.18 96.94 408.752 95.0196 412.112 182.194 T
415.385 179.981 412.18 96.94 412.112 182.194 T
415.437 99.121 412.18 96.94 415.385 179.981 T
418.495 177.5 415.437 99.121 415.385 179.981 T
418.524 101.563 415.437 99.121 418.495 177.5 T
421.442 174.753 418.524 101.563 418.495 177.5 T
421.442 104.265 418.524 101.563 421.442 174.753 T
424.186 107.219 421.442 104.265 421.442 174.753 T
397.609 188.293 396.592 147.148 395.201 148.755 T
397.674 145.421 396.592 147.148 397.609 188.293 T
401.367 187.211 397.674 145.421 397.609 188.293 T
398.447 143.571 397.674 145.421 401.367 187.211 T
398.911 141.601 398.447 143.571 401.367 187.211 T
390.047 152.001 389.944 189.529 393.802 189.066 T
391.88 151.228 390.047 152.001 393.802 189.066 T
393.598 150.146 391.88 151.228 393.802 189.066 T
395.201 148.755 393.598 150.146 393.802 189.066 T
397.609 188.293 395.201 148.755 393.802 189.066 T
386.036 189.684 386.036 152.619 383.948 152.466 T
388.099 152.464 386.036 152.619 386.036 189.684 T
389.944 189.529 388.099 152.464 386.036 189.684 T
390.047 152.001 388.099 152.464 389.944 189.529 T
381.039 189.447 380.161 151.242 378.461 150.172 T
381.99 152.007 380.161 151.242 381.039 189.447 T
386.036 189.684 381.99 152.007 381.039 189.447 T
383.948 152.466 381.99 152.007 386.036 189.684 T
376.182 188.735 375.536 147.2 374.483 145.474 T
376.891 148.795 375.536 147.2 376.182 188.735 T
381.039 189.447 376.891 148.795 376.182 188.735 T
378.461 150.172 376.891 148.795 381.039 189.447 T
373.128 139.509 371.464 187.55 376.182 188.735 T
373.278 141.628 373.128 139.509 376.182 188.735 T
373.73 143.617 373.278 141.628 376.182 188.735 T
374.483 145.474 373.73 143.617 376.182 188.735 T
426.611 168.738 424.186 107.219 424.158 171.825 T
426.657 110.318 424.186 107.219 426.611 168.738 T
428.8 165.493 426.657 110.318 426.611 168.738 T
428.854 113.563 426.657 110.318 428.8 165.493 T
430.726 162.089 428.854 113.563 428.8 165.493 T
430.778 116.954 428.854 113.563 430.726 162.089 T
432.387 158.527 430.778 116.954 430.726 162.089 T
432.428 120.491 430.778 116.954 432.387 158.527 T
433.764 154.853 432.428 120.491 432.387 158.527 T
433.79 124.139 432.428 120.491 433.764 154.853 T
434.834 151.114 433.79 124.139 433.764 154.853 T
434.849 127.865 433.79 124.139 434.834 151.114 T
435.599 147.31 434.849 127.865 434.834 151.114 T
435.606 131.669 434.849 127.865 435.599 147.31 T
436.058 143.442 435.606 131.669 435.599 147.31 T
436.06 135.55 435.606 131.669 436.058 143.442 T
436.211 139.509 436.06 135.55 436.058 143.442 T
401.445 91.9832 398.911 137.464 399.065 139.509 T
398.447 135.537 398.911 137.464 401.445 91.9832 T
397.677 90.9126 398.447 135.537 401.445 91.9832 T
397.674 133.728 398.447 135.537 397.677 90.9126 T
396.592 132.038 397.674 133.728 397.677 90.9126 T
393.854 90.1478 393.598 129.103 395.201 130.465 T
397.677 90.9126 393.854 90.1478 395.201 130.465 T
396.592 132.038 397.677 90.9126 395.201 130.465 T
393.854 90.1478 391.88 128.044 393.598 129.103 T
390.047 127.287 391.88 128.044 393.854 90.1478 T
389.973 89.6889 390.047 127.287 393.854 90.1478 T
388.099 126.833 390.047 127.287 389.973 89.6889 T
386.036 126.682 388.099 126.833 389.973 89.6889 T
386.036 89.536 386.036 126.682 389.973 89.6889 T
383.948 126.833 386.036 126.682 386.036 89.536 T
382.077 89.6873 383.948 126.833 386.036 89.536 T
381.99 127.287 383.948 126.833 382.077 89.6873 T
380.161 128.044 381.99 127.287 382.077 89.6873 T
378.196 90.1413 376.891 130.465 378.461 129.103 T
382.077 89.6873 378.196 90.1413 378.461 129.103 T
380.161 128.044 382.077 89.6873 378.461 129.103 T
378.196 90.1413 375.536 132.038 376.891 130.465 T
374.483 133.728 375.536 132.038 378.196 90.1413 T
374.392 90.898 374.483 133.728 378.196 90.1413 T
373.73 135.537 374.483 133.728 374.392 90.898 T
373.278 137.464 373.73 135.537 374.392 90.898 T
371.464 187.55 370.666 91.9573 367.018 93.3193 T
374.392 90.898 370.666 91.9573 371.464 187.55 T
373.128 139.509 374.392 90.898 371.464 187.55 T
373.278 137.464 374.392 90.898 373.128 139.509 T
354.32 178.246 353.746 101.535 350.792 104.265 T
356.845 99.0757 353.746 101.535 354.32 178.246 T
358.229 181.193 356.845 99.0757 354.32 178.246 T
360.091 96.8866 356.845 99.0757 358.229 181.193 T
362.446 183.756 360.091 96.8866 358.229 181.193 T
363.481 94.9678 360.091 96.8866 362.446 183.756 T
366.885 185.89 363.481 94.9678 362.446 183.756 T
367.018 93.3193 363.481 94.9678 366.885 185.89 T
371.464 187.55 367.018 93.3193 366.885 185.89 T
342.882 164.595 341.495 116.954 341.48 162.02 T
343.414 113.563 341.495 116.954 342.882 164.595 T
344.439 167.105 343.414 113.563 342.882 164.595 T
345.603 110.318 343.414 113.563 344.439 167.105 T
347.425 171.202 345.603 110.318 344.439 167.105 T
348.062 107.219 345.603 110.318 347.425 171.202 T
350.719 174.916 348.062 107.219 347.425 171.202 T
350.792 104.265 348.062 107.219 350.719 174.916 T
354.32 178.246 350.792 104.265 350.719 174.916 T
339.143 156.669 338.484 124.139 338.208 153.894 T
339.846 120.491 338.484 124.139 339.143 156.669 T
340.234 159.377 339.846 120.491 339.143 156.669 T
341.495 116.954 339.846 120.491 340.234 159.377 T
341.48 162.02 341.495 116.954 340.234 159.377 T
336.406 145.345 336.214 135.55 336.149 142.441 T
336.668 131.668 336.214 135.55 336.406 145.345 T
336.835 148.222 336.668 131.668 336.406 145.345 T
337.425 127.865 336.668 131.668 336.835 148.222 T
337.436 151.072 337.425 127.865 336.835 148.222 T
338.484 124.139 337.425 127.865 337.436 151.072 T
338.208 153.894 338.484 124.139 337.436 151.072 T
336.063 139.509 336.149 142.441 336.214 135.55 T
424.158 171.825 424.186 107.219 421.442 174.753 T
498.582 150.494 498.292 188.792 499.577 188.591 T
498.962 150.437 498.582 150.494 499.577 188.591 T
499.294 150.39 498.962 150.437 499.577 188.591 T
499.577 150.353 499.294 150.39 499.577 188.591 T
495.683 189.135 495.604 150.921 494.835 151.01 T
496.551 150.797 495.604 150.921 495.683 189.135 T
496.994 188.973 496.551 150.797 495.683 189.135 T
497.675 150.636 496.551 150.797 496.994 188.973 T
498.292 188.792 497.675 150.636 496.994 188.973 T
498.153 150.56 497.675 150.636 498.292 188.792 T
498.582 150.494 498.153 150.56 498.292 188.792 T
493.831 151.081 493.022 189.401 494.359 189.278 T
494.244 151.064 493.831 151.081 494.359 189.278 T
494.835 151.01 494.244 151.064 494.359 189.278 T
495.683 189.135 494.835 151.01 494.359 189.278 T
486.184 189.684 485.557 147.258 484.704 145.433 T
486.645 148.634 485.557 147.258 486.184 189.684 T
487.571 189.673 486.645 148.634 486.184 189.684 T
488.017 149.705 486.645 148.634 487.571 189.673 T
488.948 189.639 488.017 149.705 487.571 189.673 T
489.672 150.47 488.017 149.705 488.948 189.639 T
490.316 189.582 489.672 150.47 488.948 189.639 T
491.61 150.928 489.672 150.47 490.316 189.582 T
491.674 189.503 491.61 150.928 490.316 189.582 T
493.831 151.081 491.61 150.928 491.674 189.503 T
493.022 189.401 493.831 151.081 491.674 189.503 T
483.352 189.566 483.284 136.413 483.189 132.225 T
483.568 140.011 483.284 136.413 483.352 189.566 T
486.184 189.684 483.568 140.011 483.352 189.566 T
484.042 143.017 483.568 140.011 486.184 189.684 T
484.704 145.433 484.042 143.017 486.184 189.684 T
483.189 92.1661 477.694 188.62 480.522 189.211 T
483.189 132.225 483.189 92.1661 480.522 189.211 T
483.352 189.566 483.189 132.225 480.522 189.211 T
474.867 187.793 477.694 188.62 483.189 92.1661 T
472.042 186.73 474.867 187.793 483.189 92.1661 T
469.288 185.455 472.042 186.73 483.189 92.1661 T
466.675 183.991 469.288 185.455 483.189 92.1661 T
464.202 182.34 466.675 183.991 483.189 92.1661 T
461.871 180.502 464.202 182.34 483.189 92.1661 T
459.68 178.475 461.871 180.502 483.189 92.1661 T
457.043 175.662 459.68 178.475 483.189 92.1661 T
454.734 172.694 457.043 175.662 483.189 92.1661 T
452.751 169.57 454.734 172.694 483.189 92.1661 T
451.095 166.291 452.751 169.57 483.189 92.1661 T
449.766 162.856 451.095 166.291 483.189 92.1661 T
448.718 159.069 449.766 162.856 483.189 92.1661 T
447.902 154.731 448.718 159.069 483.189 92.1661 T
447.319 149.843 447.902 154.731 483.189 92.1661 T
446.969 144.405 447.319 149.843 483.189 92.1661 T
446.853 138.416 446.969 144.405 483.189 92.1661 T
446.853 92.1661 446.853 138.416 483.189 92.1661 T
557.737 151.509 557.727 188.293 561.152 187.211 T
558.573 150.474 557.737 151.509 561.152 187.211 T
559.229 149.116 558.573 150.474 561.152 187.211 T
559.739 147.341 559.229 149.116 561.152 187.211 T
560.103 145.148 559.739 147.341 561.152 187.211 T
560.322 142.537 560.103 145.148 561.152 187.211 T
560.394 139.509 560.322 142.537 561.152 187.211 T
593.979 92.1661 560.394 139.509 561.152 187.211 T
564.441 185.82 593.979 92.1661 561.152 187.211 T
554.166 189.066 553.925 153.232 552.221 153.347 T
555.412 152.888 553.925 153.232 554.166 189.066 T
557.727 188.293 555.412 152.888 554.166 189.066 T
556.683 152.313 555.412 152.888 557.727 188.293 T
557.737 151.509 556.683 152.313 557.727 188.293 T
550.469 189.529 549.048 152.888 547.778 152.313 T
550.529 153.232 549.048 152.888 550.469 189.529 T
554.166 189.066 550.529 153.232 550.469 189.529 T
552.221 153.347 550.529 153.232 554.166 189.066 T
546.637 189.684 545.868 150.474 545.198 149.116 T
546.718 151.509 545.868 150.474 546.637 189.684 T
550.469 189.529 546.718 151.509 546.637 189.684 T
547.778 152.313 546.718 151.509 550.469 189.529 T
544.081 142.537 542.727 189.534 546.637 189.684 T
544.304 145.148 544.081 142.537 546.637 189.684 T
544.677 147.341 544.304 145.148 546.637 189.684 T
545.198 149.116 544.677 147.341 546.637 189.684 T
544.007 92.1661 538.994 189.085 542.727 189.534 T
544.007 139.509 544.007 92.1661 542.727 189.534 T
544.081 142.537 544.007 139.509 542.727 189.534 T
535.437 188.336 538.994 189.085 544.007 92.1661 T
532.057 187.288 535.437 188.336 544.007 92.1661 T
528.853 185.941 532.057 187.288 544.007 92.1661 T
525.842 184.302 528.853 185.941 544.007 92.1661 T
523.039 182.38 525.842 184.302 544.007 92.1661 T
520.445 180.175 523.039 182.38 544.007 92.1661 T
518.06 177.686 520.445 180.175 544.007 92.1661 T
515.884 174.915 518.06 177.686 544.007 92.1661 T
514.786 173.256 515.884 174.915 544.007 92.1661 T
513.822 171.548 514.786 173.256 544.007 92.1661 T
512.993 169.792 513.822 171.548 544.007 92.1661 T
512.297 167.987 512.993 169.792 544.007 92.1661 T
511.737 166.134 512.297 167.987 544.007 92.1661 T
511.292 164.12 511.737 166.134 544.007 92.1661 T
510.947 161.835 511.292 164.12 544.007 92.1661 T
510.7 159.278 510.947 161.835 544.007 92.1661 T
510.552 156.449 510.7 159.278 544.007 92.1661 T
510.503 153.347 510.552 156.449 544.007 92.1661 T
510.503 92.1661 510.503 153.347 544.007 92.1661 T
608.506 150.474 607.818 189.684 611.228 189.566 T
609.176 149.116 608.506 150.474 611.228 189.566 T
609.697 147.341 609.176 149.116 611.228 189.566 T
610.069 145.148 609.697 147.341 611.228 189.566 T
610.293 142.537 610.069 145.148 611.228 189.566 T
610.367 139.509 610.293 142.537 611.228 189.566 T
644.154 92.1661 610.367 139.509 611.228 189.566 T
614.532 189.211 644.154 92.1661 611.228 189.566 T
605.34 152.888 604.034 189.531 607.818 189.684 T
606.602 152.313 605.34 152.888 607.818 189.684 T
607.658 151.509 606.602 152.313 607.818 189.684 T
608.506 150.474 607.658 151.509 607.818 189.684 T
600.516 153.232 600.385 189.072 604.034 189.531 T
602.193 153.347 600.516 153.232 604.034 189.531 T
603.87 153.232 602.193 153.347 604.034 189.531 T
605.34 152.888 603.87 153.232 604.034 189.531 T
596.873 188.307 596.716 151.509 595.861 150.474 T
597.777 152.313 596.716 151.509 596.873 188.307 T
600.385 189.072 597.777 152.313 596.873 188.307 T
599.044 152.888 597.777 152.313 600.385 189.072 T
600.516 153.232 599.044 152.888 600.385 189.072 T
594.055 142.537 593.497 187.237 596.873 188.307 T
594.28 145.148 594.055 142.537 596.873 188.307 T
594.657 147.341 594.28 145.148 596.873 188.307 T
595.183 149.116 594.657 147.341 596.873 188.307 T
595.861 150.474 595.183 149.116 596.873 188.307 T
593.979 92.1661 590.257 185.86 593.497 187.237 T
593.979 139.509 593.979 92.1661 593.497 187.237 T
594.055 142.537 593.979 139.509 593.497 187.237 T
587.198 184.199 590.257 185.86 593.979 92.1661 T
584.365 182.273 587.198 184.199 593.979 92.1661 T
581.759 180.084 584.365 182.273 593.979 92.1661 T
579.38 177.631 581.759 180.084 593.979 92.1661 T
577.227 174.915 579.38 177.631 593.979 92.1661 T
575.201 177.604 577.227 174.915 593.979 92.1661 T
572.909 180.039 575.201 177.604 593.979 92.1661 T
570.352 182.22 572.909 180.039 593.979 92.1661 T
567.529 184.147 570.352 182.22 593.979 92.1661 T
564.441 185.82 567.529 184.147 593.979 92.1661 T
644.08 154.748 644.154 150.353 644.154 92.1661 T
643.857 158.676 644.08 154.748 644.154 92.1661 T
643.484 162.135 643.857 158.676 644.154 92.1661 T
642.963 165.127 643.484 162.135 644.154 92.1661 T
642.293 167.651 642.963 165.127 644.154 92.1661 T
641.451 169.902 642.293 167.651 644.154 92.1661 T
640.416 172.073 641.451 169.902 644.154 92.1661 T
639.185 174.165 640.416 172.073 644.154 92.1661 T
637.761 176.178 639.185 174.165 644.154 92.1661 T
636.143 178.111 637.761 176.178 644.154 92.1661 T
634.043 180.269 636.143 178.111 644.154 92.1661 T
631.76 182.209 634.043 180.269 644.154 92.1661 T
629.291 183.933 631.76 182.209 644.154 92.1661 T
626.638 185.44 629.291 183.933 644.154 92.1661 T
623.801 186.73 626.638 185.44 644.154 92.1661 T
620.818 187.793 623.801 186.73 644.154 92.1661 T
617.728 188.62 620.818 187.793 644.154 92.1661 T
614.532 189.211 617.728 188.62 644.154 92.1661 T
610.367 92.1661 610.367 139.509 644.154 92.1661 T
560.394 92.1661 560.394 139.509 593.979 92.1661 T
717.585 91.4006 715.816 126.479 736.331 101.27 T
720.833 92.4494 717.585 91.4006 736.331 101.27 T
724.017 93.7345 720.833 92.4494 736.331 101.27 T
727.159 95.2592 724.017 93.7345 736.331 101.27 T
730.258 97.0234 727.159 95.2592 736.331 101.27 T
733.316 99.0272 730.258 97.0234 736.331 101.27 T
717.585 91.4006 715.157 125.399 715.816 126.479 T
714.346 124.391 715.157 125.399 717.585 91.4006 T
714.249 90.5848 714.346 124.391 717.585 91.4006 T
713.383 123.457 714.346 124.391 714.249 90.5848 T
712.268 122.595 713.383 123.457 714.249 90.5848 T
710.826 90.0021 709.657 121.128 711.001 121.806 T
714.249 90.5848 710.826 90.0021 711.001 121.806 T
712.268 122.595 714.249 90.5848 711.001 121.806 T
707.315 89.6525 706.97 120.225 708.314 120.602 T
710.826 90.0021 707.315 89.6525 708.314 120.602 T
709.657 121.128 710.826 90.0021 708.314 120.602 T
707.315 89.6525 705.627 120 706.97 120.225 T
704.284 119.924 705.627 120 707.315 89.6525 T
703.717 89.536 704.284 119.924 707.315 89.6525 T
701.56 120.15 704.284 119.924 703.717 89.536 T
700.811 89.6234 701.56 120.15 703.717 89.536 T
699.085 120.827 701.56 120.15 700.811 89.6234 T
697.919 89.8856 699.085 120.827 700.811 89.6234 T
696.859 121.956 699.085 120.827 697.919 89.8856 T
695.042 90.3226 696.859 121.956 697.919 89.8856 T
694.883 123.537 696.859 121.956 695.042 90.3226 T
693.156 125.569 694.883 123.537 695.042 90.3226 T
693.156 125.569 695.042 90.3226 692.18 90.9344 T
691.714 128.002 693.156 125.569 692.18 90.9344 T
690.592 130.787 691.714 128.002 692.18 90.9344 T
689.791 133.923 690.592 130.787 692.18 90.9344 T
689.332 91.721 689.791 133.923 692.18 90.9344 T
689.332 91.721 689.31 137.41 689.791 133.923 T
689.15 141.249 689.31 137.41 689.332 91.721 T
688.451 187.237 689.15 141.249 689.332 91.721 T
689.325 144.916 689.15 141.249 688.451 187.237 T
692.18 188.307 689.325 144.916 688.451 187.237 T
689.849 148.28 689.325 144.916 692.18 188.307 T
690.723 151.339 689.849 148.28 692.18 188.307 T
681.214 184.192 681.109 95.1006 678.501 96.5637 T
683.784 93.8057 681.109 95.1006 681.214 184.192 T
684.78 185.86 683.784 93.8057 681.214 184.192 T
686.525 92.6792 683.784 93.8057 684.78 185.86 T
688.451 187.237 686.525 92.6792 684.78 185.86 T
689.332 91.721 686.525 92.6792 688.451 187.237 T
674.539 180.026 671.924 101.121 671.43 177.528 T
675.959 98.1952 671.924 101.121 674.539 180.026 T
677.801 182.247 675.959 98.1952 674.539 180.026 T
678.501 96.5637 675.959 98.1952 677.801 182.247 T
681.214 184.192 678.501 96.5637 677.801 182.247 T
661.148 165.573 659.571 115.979 659.228 162.167 T
662.091 111.791 659.571 115.979 661.148 165.573 T
663.329 168.806 662.091 111.791 661.148 165.573 T
664.99 107.919 662.091 111.791 663.329 168.806 T
665.771 171.866 664.99 107.919 663.329 168.806 T
668.268 104.362 664.99 107.919 665.771 171.866 T
668.473 174.753 668.268 104.362 665.771 171.866 T
671.924 101.121 668.268 104.362 668.473 174.753 T
671.43 177.528 671.924 101.121 668.473 174.753 T
654.356 147.32 653.977 134.515 653.897 143.444 T
654.677 129.665 653.977 134.515 654.356 147.32 T
655.121 151.136 654.677 129.665 654.356 147.32 T
655.842 124.959 654.677 129.665 655.121 151.136 T
656.192 154.891 655.842 124.959 655.121 151.136 T
657.473 120.397 655.842 124.959 656.192 154.891 T
657.568 158.587 657.473 120.397 656.192 154.891 T
659.571 115.979 657.473 120.397 657.568 158.587 T
659.228 162.167 659.571 115.979 657.568 158.587 T
712.535 160.503 712.177 189.085 720.013 187.288 T
713.954 159.498 712.535 160.503 720.013 187.288 T
715.149 158.303 713.954 159.498 720.013 187.288 T
716.078 156.954 715.149 158.303 720.013 187.288 T
716.742 155.448 716.078 156.954 720.013 187.288 T
717.14 153.788 716.742 155.448 720.013 187.288 T
717.272 151.972 717.14 153.788 720.013 187.288 T
753.892 133.965 717.272 151.972 720.013 187.288 T
727.223 184.294 753.892 133.965 720.013 187.288 T
705.012 162.29 703.717 189.684 712.177 189.085 T
707.169 162.178 705.012 162.29 712.177 189.085 T
709.142 161.843 707.169 162.178 712.177 189.085 T
710.931 161.285 709.142 161.843 712.177 189.085 T
712.535 160.503 710.931 161.285 712.177 189.085 T
699.813 189.531 699.755 161.371 697.457 160.221 T
702.273 162.06 699.755 161.371 699.813 189.531 T
703.717 189.684 702.273 162.06 699.813 189.531 T
705.012 162.29 702.273 162.06 703.717 189.684 T
693.52 156.544 692.18 188.307 695.967 189.072 T
695.378 158.613 693.52 156.544 695.967 189.072 T
697.457 160.221 695.378 158.613 695.967 189.072 T
699.813 189.531 697.457 160.221 695.967 189.072 T
691.947 154.094 690.723 151.339 692.18 188.307 T
693.52 156.544 691.947 154.094 692.18 188.307 T
753.327 145.112 753.892 135.948 753.892 133.965 T
751.633 153.571 753.327 145.112 753.892 133.965 T
748.808 161.324 751.633 153.571 753.892 133.965 T
744.854 168.371 748.808 161.324 753.892 133.965 T
739.77 174.712 744.854 168.371 753.892 133.965 T
733.809 180.102 739.77 174.712 753.892 133.965 T
727.223 184.294 733.809 180.102 753.892 133.965 T
701.451 151.607 701.451 133.965 700.516 134.049 T
753.892 133.965 701.451 133.965 701.451 151.607 T
717.272 151.607 753.892 133.965 701.451 151.607 T
717.272 151.972 753.892 133.965 717.272 151.607 T
699.684 134.299 699.684 151.258 700.516 151.52 T
700.516 134.049 699.684 134.299 700.516 151.52 T
701.451 151.607 700.516 134.049 700.516 151.52 T
697.809 149.422 697.809 136.049 697.387 136.982 T
698.331 135.299 697.809 136.049 697.809 149.422 T
698.331 150.209 698.331 135.299 697.809 149.422 T
698.955 134.715 698.331 135.299 698.331 150.209 T
698.955 150.821 698.955 134.715 698.331 150.209 T
699.684 134.299 698.955 134.715 698.955 150.821 T
699.684 151.258 699.684 134.299 698.955 150.821 T
697.058 138.114 697.058 147.299 697.387 148.454 T
697.387 136.982 697.058 138.114 697.387 148.454 T
697.809 149.422 697.387 136.982 697.387 148.454 T
696.683 144.424 696.683 140.976 696.636 142.705 T
696.824 139.446 696.683 140.976 696.683 144.424 T
696.824 145.955 696.824 139.446 696.683 144.424 T
697.058 138.114 696.824 139.446 696.824 145.955 T
697.058 147.299 697.058 138.114 696.824 145.955 T
653.744 139.509 653.897 143.444 653.977 134.515 T
761.55 163.395 761.418 187.054 798.2 187.054 T
761.943 160.283 761.55 163.395 798.2 187.054 T
762.598 157.406 761.943 160.283 798.2 187.054 T
763.516 154.764 762.598 157.406 798.2 187.054 T
764.696 152.356 763.516 154.764 798.2 187.054 T
766.167 150.123 764.696 152.356 798.2 187.054 T
767.959 148.005 766.167 150.123 798.2 187.054 T
770.071 146.002 767.959 148.005 798.2 187.054 T
772.504 144.114 770.071 146.002 798.2 187.054 T
775.257 142.341 772.504 144.114 798.2 187.054 T
798.2 92.1661 775.257 142.341 798.2 187.054 T
798.2 116.566 798.2 92.1661 798.2 187.054 T
798.2 167.833 798.2 116.566 798.2 187.054 T
811.958 116.566 847.849 92.1661 811.958 92.1661 T
811.958 167.833 847.849 92.1661 811.958 116.566 T
811.896 119.329 811.958 167.833 811.958 116.566 T
811.894 165.1 811.958 167.833 811.896 119.329 T
811.712 121.726 811.894 165.1 811.896 119.329 T
811.702 162.728 811.894 165.1 811.712 121.726 T
811.404 123.757 811.702 162.728 811.712 121.726 T
811.382 160.717 811.702 162.728 811.404 123.757 T
810.974 125.423 811.382 160.717 811.404 123.757 T
810.935 159.067 811.382 160.717 810.974 125.423 T
810.42 126.722 810.935 159.067 810.974 125.423 T
810.359 157.778 810.935 159.067 810.42 126.722 T
809.716 127.727 810.359 157.778 810.42 126.722 T
809.632 156.78 810.359 157.778 809.716 127.727 T
808.834 128.509 809.632 156.78 809.716 127.727 T
808.728 156.004 809.632 156.78 808.834 128.509 T
807.774 129.067 808.728 156.004 808.834 128.509 T
807.648 155.45 808.728 156.004 807.774 129.067 T
806.536 129.403 807.648 155.45 807.774 129.067 T
806.391 155.117 807.648 155.45 806.536 129.403 T
805.119 129.514 806.391 155.117 806.536 129.403 T
804.958 155.006 806.391 155.117 805.119 129.514 T
803.688 129.407 804.958 155.006 805.119 129.514 T
803.557 155.113 804.958 155.006 803.688 129.407 T
802.436 129.084 803.557 155.113 803.688 129.407 T
802.332 155.434 803.557 155.113 802.436 129.084 T
801.364 128.546 802.332 155.434 802.436 129.084 T
801.284 155.968 802.332 155.434 801.364 128.546 T
800.471 127.792 801.284 155.968 801.364 128.546 T
800.413 156.716 801.284 155.968 800.471 127.792 T
799.758 126.823 800.413 156.716 800.471 127.792 T
799.717 157.677 800.413 156.716 799.758 126.823 T
799.197 125.552 799.717 157.677 799.758 126.823 T
799.171 158.938 799.717 157.677 799.197 125.552 T
798.761 123.891 799.171 158.938 799.197 125.552 T
798.746 160.584 799.171 158.938 798.761 123.891 T
798.449 121.839 798.746 160.584 798.761 123.891 T
798.443 162.615 798.746 160.584 798.449 121.839 T
798.262 119.397 798.443 162.615 798.449 121.839 T
798.261 165.032 798.443 162.615 798.262 119.397 T
798.2 167.833 798.261 165.032 798.262 119.397 T
847.718 121.09 847.849 117.739 847.849 92.1661 T
847.325 124.213 847.718 121.09 847.849 92.1661 T
846.669 127.111 847.325 124.213 847.849 92.1661 T
845.751 129.781 846.669 127.111 847.849 92.1661 T
844.572 132.225 845.751 129.781 847.849 92.1661 T
843.1 134.494 844.572 132.225 847.849 92.1661 T
841.309 136.641 843.1 134.494 847.849 92.1661 T
839.196 138.664 841.309 136.641 847.849 92.1661 T
836.764 140.564 839.196 138.664 847.849 92.1661 T
834.01 142.341 836.764 140.564 847.849 92.1661 T
811.958 187.054 834.01 142.341 847.849 92.1661 T
811.958 167.833 811.958 187.054 847.849 92.1661 T
834.01 142.341 811.958 187.054 847.849 187.054 T
836.764 144.114 834.01 142.341 847.849 187.054 T
839.196 146.002 836.764 144.114 847.849 187.054 T
841.309 148.005 839.196 146.002 847.849 187.054 T
843.1 150.123 841.309 148.005 847.849 187.054 T
844.572 152.356 843.1 150.123 847.849 187.054 T
845.751 154.764 844.572 152.356 847.849 187.054 T
846.669 157.406 845.751 154.764 847.849 187.054 T
847.325 160.283 846.669 157.406 847.849 187.054 T
847.718 163.395 847.325 160.283 847.849 187.054 T
847.849 166.741 847.718 163.395 847.849 187.054 T
772.504 140.564 775.257 142.341 798.2 92.1661 T
770.071 138.664 772.504 140.564 798.2 92.1661 T
767.959 136.641 770.071 138.664 798.2 92.1661 T
766.167 134.494 767.959 136.641 798.2 92.1661 T
764.696 132.225 766.167 134.494 798.2 92.1661 T
763.516 129.781 764.696 132.225 798.2 92.1661 T
762.598 127.111 763.516 129.781 798.2 92.1661 T
761.943 124.213 762.598 127.111 798.2 92.1661 T
761.55 121.09 761.943 124.213 798.2 92.1661 T
761.418 117.739 761.55 121.09 798.2 92.1661 T
761.418 92.1661 761.418 117.739 798.2 92.1661 T
798.2 116.566 798.2 167.833 798.262 119.397 T
761.418 166.741 761.418 187.054 761.55 163.395 T
856.932 105.341 856.129 108.801 855.861 112.479 T
858.272 102.1 856.932 105.341 855.861 112.479 T
860.147 99.0773 858.272 102.1 855.861 112.479 T
862.558 96.2732 860.147 99.0773 855.861 112.479 T
865.35 93.8478 862.558 96.2732 855.861 112.479 T
868.372 91.9614 865.35 93.8478 855.861 112.479 T
871.621 90.6139 868.372 91.9614 855.861 112.479 T
875.098 89.8055 871.621 90.6139 855.861 112.479 T
878.804 89.536 875.098 89.8055 855.861 112.479 T
882.449 89.8038 878.804 89.536 855.861 112.479 T
885.874 90.6075 882.449 89.8038 855.861 112.479 T
889.078 91.9468 885.874 90.6075 855.861 112.479 T
892.063 93.8219 889.078 91.9468 855.861 112.479 T
894.828 96.2327 892.063 93.8219 855.861 112.479 T
897.217 99.0256 894.828 96.2327 855.861 112.479 T
899.075 102.047 897.217 99.0256 855.861 112.479 T
900.402 105.296 899.075 102.047 855.861 112.479 T
901.198 108.773 900.402 105.296 855.861 112.479 T
901.464 112.479 901.198 108.773 855.861 112.479 T
901.198 116.153 901.464 112.479 855.861 112.479 T
900.402 119.601 901.198 116.153 855.861 112.479 T
899.075 122.821 900.402 119.601 855.861 112.479 T
897.217 125.816 899.075 122.821 855.861 112.479 T
894.828 128.584 897.217 125.816 855.861 112.479 T
892.063 130.973 894.828 128.584 855.861 112.479 T
889.078 132.831 892.063 130.973 855.861 112.479 T
885.874 134.158 889.078 132.831 855.861 112.479 T
882.449 134.954 885.874 134.158 855.861 112.479 T
878.804 135.22 882.449 134.954 855.861 112.479 T
875.126 134.953 878.804 135.22 855.861 112.479 T
871.666 134.151 875.126 134.953 855.861 112.479 T
868.425 132.816 871.666 134.151 855.861 112.479 T
865.402 130.947 868.425 132.816 855.861 112.479 T
862.598 128.543 865.402 130.947 855.861 112.479 T
860.173 125.764 862.598 128.543 855.861 112.479 T
858.286 122.768 860.173 125.764 855.861 112.479 T
856.939 119.555 858.286 122.768 855.861 112.479 T
856.13 116.126 856.939 119.555 855.861 112.479 T
973.161 187.211 970.859 139.509 970.704 141.601 T
973.238 91.9832 970.859 139.509 973.161 187.211 T
976.868 185.82 973.238 91.9832 973.161 187.211 T
976.949 93.3598 973.238 91.9832 976.868 185.82 T
980.468 184.14 976.949 93.3598 976.868 185.82 T
980.546 95.0196 976.949 93.3598 980.468 184.14 T
983.905 182.194 980.546 95.0196 980.468 184.14 T
983.973 96.94 980.546 95.0196 983.905 182.194 T
987.179 179.981 983.973 96.94 983.905 182.194 T
987.231 99.121 983.973 96.94 987.179 179.981 T
990.289 177.5 987.231 99.121 987.179 179.981 T
990.318 101.563 987.231 99.121 990.289 177.5 T
993.235 174.753 990.318 101.563 990.289 177.5 T
993.235 104.265 990.318 101.563 993.235 174.753 T
995.98 107.219 993.235 104.265 993.235 174.753 T
969.403 188.293 968.386 147.148 966.995 148.755 T
969.468 145.421 968.386 147.148 969.403 188.293 T
973.161 187.211 969.468 145.421 969.403 188.293 T
970.241 143.571 969.468 145.421 973.161 187.211 T
970.704 141.601 970.241 143.571 973.161 187.211 T
961.84 152.001 961.738 189.529 965.595 189.066 T
963.673 151.228 961.84 152.001 965.595 189.066 T
965.392 150.146 963.673 151.228 965.595 189.066 T
966.995 148.755 965.392 150.146 965.595 189.066 T
969.403 188.293 966.995 148.755 965.595 189.066 T
957.83 189.684 957.83 152.619 955.742 152.466 T
959.893 152.464 957.83 152.619 957.83 189.684 T
961.738 189.529 959.893 152.464 957.83 189.684 T
961.84 152.001 959.893 152.464 961.738 189.529 T
952.833 189.447 951.954 151.242 950.255 150.172 T
953.783 152.007 951.954 151.242 952.833 189.447 T
957.83 189.684 953.783 152.007 952.833 189.447 T
955.742 152.466 953.783 152.007 957.83 189.684 T
947.976 188.735 947.33 147.2 946.276 145.474 T
948.685 148.795 947.33 147.2 947.976 188.735 T
952.833 189.447 948.685 148.795 947.976 188.735 T
950.255 150.172 948.685 148.795 952.833 189.447 T
944.922 139.509 943.258 187.55 947.976 188.735 T
945.072 141.628 944.922 139.509 947.976 188.735 T
945.524 143.617 945.072 141.628 947.976 188.735 T
946.276 145.474 945.524 143.617 947.976 188.735 T
998.405 168.738 995.98 107.219 995.952 171.825 T
998.45 110.318 995.98 107.219 998.405 168.738 T
1000.59 165.493 998.45 110.318 998.405 168.738 T
1000.65 113.563 998.45 110.318 1000.59 165.493 T
1002.52 162.089 1000.65 113.563 1000.59 165.493 T
1002.57 116.954 1000.65 113.563 1002.52 162.089 T
1004.18 158.527 1002.57 116.954 1002.52 162.089 T
1004.22 120.491 1002.57 116.954 1004.18 158.527 T
1005.56 154.853 1004.22 120.491 1004.18 158.527 T
1005.58 124.139 1004.22 120.491 1005.56 154.853 T
1006.63 151.114 1005.58 124.139 1005.56 154.853 T
1006.64 127.865 1005.58 124.139 1006.63 151.114 T
1007.39 147.31 1006.64 127.865 1006.63 151.114 T
1007.4 131.669 1006.64 127.865 1007.39 147.31 T
1007.85 143.442 1007.4 131.669 1007.39 147.31 T
1007.85 135.55 1007.4 131.669 1007.85 143.442 T
1008 139.509 1007.85 135.55 1007.85 143.442 T
973.238 91.9832 970.704 137.464 970.859 139.509 T
970.241 135.537 970.704 137.464 973.238 91.9832 T
969.471 90.9126 970.241 135.537 973.238 91.9832 T
969.468 133.728 970.241 135.537 969.471 90.9126 T
968.386 132.038 969.468 133.728 969.471 90.9126 T
965.647 90.1478 965.392 129.103 966.995 130.465 T
969.471 90.9126 965.647 90.1478 966.995 130.465 T
968.386 132.038 969.471 90.9126 966.995 130.465 T
965.647 90.1478 963.673 128.044 965.392 129.103 T
961.84 127.287 963.673 128.044 965.647 90.1478 T
961.767 89.6889 961.84 127.287 965.647 90.1478 T
959.893 126.833 961.84 127.287 961.767 89.6889 T
957.83 126.682 959.893 126.833 961.767 89.6889 T
957.83 89.536 957.83 126.682 961.767 89.6889 T
955.742 126.833 957.83 126.682 957.83 89.536 T
953.871 89.6873 955.742 126.833 957.83 89.536 T
953.783 127.287 955.742 126.833 953.871 89.6873 T
951.954 128.044 953.783 127.287 953.871 89.6873 T
949.989 90.1413 948.685 130.465 950.255 129.103 T
953.871 89.6873 949.989 90.1413 950.255 129.103 T
951.954 128.044 953.871 89.6873 950.255 129.103 T
949.989 90.1413 947.33 132.038 948.685 130.465 T
946.276 133.728 947.33 132.038 949.989 90.1413 T
946.186 90.898 946.276 133.728 949.989 90.1413 T
945.524 135.537 946.276 133.728 946.186 90.898 T
945.072 137.464 945.524 135.537 946.186 90.898 T
943.258 187.55 942.46 91.9573 938.812 93.3193 T
946.186 90.898 942.46 91.9573 943.258 187.55 T
944.922 139.509 946.186 90.898 943.258 187.55 T
945.072 137.464 946.186 90.898 944.922 139.509 T
926.114 178.246 925.54 101.535 922.586 104.265 T
928.639 99.0757 925.54 101.535 926.114 178.246 T
930.023 181.193 928.639 99.0757 926.114 178.246 T
931.884 96.8866 928.639 99.0757 930.023 181.193 T
934.239 183.756 931.884 96.8866 930.023 181.193 T
935.275 94.9678 931.884 96.8866 934.239 183.756 T
938.679 185.89 935.275 94.9678 934.239 183.756 T
938.812 93.3193 935.275 94.9678 938.679 185.89 T
943.258 187.55 938.812 93.3193 938.679 185.89 T
914.676 164.595 913.289 116.954 913.274 162.02 T
915.208 113.563 913.289 116.954 914.676 164.595 T
916.233 167.105 915.208 113.563 914.676 164.595 T
917.397 110.318 915.208 113.563 916.233 167.105 T
919.219 171.202 917.397 110.318 916.233 167.105 T
919.856 107.219 917.397 110.318 919.219 171.202 T
922.513 174.916 919.856 107.219 919.219 171.202 T
922.586 104.265 919.856 107.219 922.513 174.916 T
926.114 178.246 922.586 104.265 922.513 174.916 T
910.937 156.669 910.278 124.139 910.001 153.894 T
911.64 120.491 910.278 124.139 910.937 156.669 T
912.028 159.377 911.64 120.491 910.937 156.669 T
913.289 116.954 911.64 120.491 912.028 159.377 T
913.274 162.02 913.289 116.954 912.028 159.377 T
908.2 145.345 908.008 135.55 907.943 142.441 T
908.462 131.668 908.008 135.55 908.2 145.345 T
908.629 148.222 908.462 131.668 908.2 145.345 T
909.219 127.865 908.462 131.668 908.629 148.222 T
909.229 151.072 909.219 127.865 908.629 148.222 T
910.278 124.139 909.219 127.865 909.229 151.072 T
910.001 153.894 910.278 124.139 909.229 151.072 T
907.857 139.509 907.943 142.441 908.008 135.55 T
995.952 171.825 995.98 107.219 993.235 174.753 T
1070.38 150.494 1070.09 188.792 1071.37 188.591 T
1070.76 150.437 1070.38 150.494 1071.37 188.591 T
1071.09 150.39 1070.76 150.437 1071.37 188.591 T
1071.37 150.353 1071.09 150.39 1071.37 188.591 T
1067.48 189.135 1067.4 150.921 1066.63 151.01 T
1068.34 150.797 1067.4 150.921 1067.48 189.135 T
1068.79 188.973 1068.34 150.797 1067.48 189.135 T
1069.47 150.636 1068.34 150.797 1068.79 188.973 T
1070.09 188.792 1069.47 150.636 1068.79 188.973 T
1069.95 150.56 1069.47 150.636 1070.09 188.792 T
1070.38 150.494 1069.95 150.56 1070.09 188.792 T
1065.63 151.081 1064.82 189.401 1066.15 189.278 T
1066.04 151.064 1065.63 151.081 1066.15 189.278 T
1066.63 151.01 1066.04 151.064 1066.15 189.278 T
1067.48 189.135 1066.63 151.01 1066.15 189.278 T
1057.98 189.684 1057.35 147.258 1056.5 145.433 T
1058.44 148.634 1057.35 147.258 1057.98 189.684 T
1059.36 189.673 1058.44 148.634 1057.98 189.684 T
1059.81 149.705 1058.44 148.634 1059.36 189.673 T
1060.74 189.639 1059.81 149.705 1059.36 189.673 T
1061.47 150.47 1059.81 149.705 1060.74 189.639 T
1062.11 189.582 1061.47 150.47 1060.74 189.639 T
1063.4 150.928 1061.47 150.47 1062.11 189.582 T
1063.47 189.503 1063.4 150.928 1062.11 189.582 T
1065.63 151.081 1063.4 150.928 1063.47 189.503 T
1064.82 189.401 1065.63 151.081 1063.47 189.503 T
1055.15 189.566 1055.08 136.413 1054.98 132.225 T
1055.36 140.011 1055.08 136.413 1055.15 189.566 T
1057.98 189.684 1055.36 140.011 1055.15 189.566 T
1055.84 143.017 1055.36 140.011 1057.98 189.684 T
1056.5 145.433 1055.84 143.017 1057.98 189.684 T
1054.98 92.1661 1049.49 188.62 1052.32 189.211 T
1054.98 132.225 1054.98 92.1661 1052.32 189.211 T
1055.15 189.566 1054.98 132.225 1052.32 189.211 T
1046.66 187.793 1049.49 188.62 1054.98 92.1661 T
1043.84 186.73 1046.66 187.793 1054.98 92.1661 T
1041.08 185.455 1043.84 186.73 1054.98 92.1661 T
1038.47 183.991 1041.08 185.455 1054.98 92.1661 T
1036 182.34 1038.47 183.991 1054.98 92.1661 T
1033.66 180.502 1036 182.34 1054.98 92.1661 T
1031.47 178.475 1033.66 180.502 1054.98 92.1661 T
1028.84 175.662 1031.47 178.475 1054.98 92.1661 T
1026.53 172.694 1028.84 175.662 1054.98 92.1661 T
1024.54 169.57 1026.53 172.694 1054.98 92.1661 T
1022.89 166.291 1024.54 169.57 1054.98 92.1661 T
1021.56 162.856 1022.89 166.291 1054.98 92.1661 T
1020.51 159.069 1021.56 162.856 1054.98 92.1661 T
1019.7 154.731 1020.51 159.069 1054.98 92.1661 T
1019.11 149.843 1019.7 154.731 1054.98 92.1661 T
1018.76 144.405 1019.11 149.843 1054.98 92.1661 T
1018.65 138.416 1018.76 144.405 1054.98 92.1661 T
1018.65 92.1661 1018.65 138.416 1054.98 92.1661 T
1141.66 146.791 1140.65 188.703 1145.96 187.275 T
1142.58 143.949 1141.66 146.791 1145.96 187.275 T
1143.24 140.514 1142.58 143.949 1145.96 187.275 T
1143.63 136.484 1143.24 140.514 1145.96 187.275 T
1143.76 131.861 1143.63 136.484 1145.96 187.275 T
1150.01 51.555 1143.76 131.861 1145.96 187.275 T
1151.02 185.275 1150.01 51.555 1145.96 187.275 T
1137.17 152.159 1135.09 189.56 1140.65 188.703 T
1139 150.793 1137.17 152.159 1140.65 188.703 T
1140.48 149.038 1139 150.793 1140.65 188.703 T
1141.66 146.791 1140.48 149.038 1140.65 188.703 T
1129.64 153.914 1129.27 189.846 1135.09 189.56 T
1132.49 153.719 1129.64 153.914 1135.09 189.56 T
1135.01 153.134 1132.49 153.719 1135.09 189.56 T
1137.17 152.159 1135.01 153.134 1135.09 189.56 T
1121.6 151.544 1121.08 189.274 1129.27 189.846 T
1123.39 152.581 1121.6 151.544 1129.27 189.846 T
1125.33 153.321 1123.39 152.581 1129.27 189.846 T
1127.41 153.766 1125.33 153.321 1129.27 189.846 T
1129.64 153.914 1127.41 153.766 1129.27 189.846 T
1116.16 143.394 1113.45 187.56 1121.08 189.274 T
1116.63 145.266 1116.16 143.394 1121.08 189.274 T
1117.42 147.026 1116.63 145.266 1121.08 189.274 T
1118.53 148.675 1117.42 147.026 1121.08 189.274 T
1119.95 150.211 1118.53 148.675 1121.08 189.274 T
1121.6 151.544 1119.95 150.211 1121.08 189.274 T
1122.92 94.6344 1116.62 137.303 1117.39 135.494 T
1116.16 139.275 1116.62 137.303 1122.92 94.6344 T
1115.68 95.1402 1116.16 139.275 1122.92 94.6344 T
1116 141.411 1116.16 139.275 1115.68 95.1402 T
1113.45 187.56 1116 141.411 1115.68 95.1402 T
1116.16 143.394 1116 141.411 1113.45 187.56 T
1080.39 148.047 1080.31 132.082 1079.83 139.711 T
1081.77 125.024 1080.31 132.082 1080.39 148.047 T
1082.09 155.799 1081.77 125.024 1080.39 148.047 T
1084.21 118.538 1081.77 125.024 1082.09 155.799 T
1084.91 162.97 1084.21 118.538 1082.09 155.799 T
1087.61 112.623 1084.21 118.538 1084.91 162.97 T
1088.87 169.557 1087.61 112.623 1084.91 162.97 T
1091.99 107.279 1087.61 112.623 1088.87 169.557 T
1093.95 175.562 1091.99 107.279 1088.87 169.557 T
1097.12 102.727 1091.99 107.279 1093.95 175.562 T
1099.88 180.704 1097.12 102.727 1093.95 175.562 T
1102.77 99.1866 1097.12 102.727 1099.88 180.704 T
1106.38 184.704 1102.77 99.1866 1099.88 180.704 T
1108.96 96.6576 1102.77 99.1866 1106.38 184.704 T
1113.45 187.56 1108.96 96.6576 1106.38 184.704 T
1115.68 95.1402 1108.96 96.6576 1113.45 187.56 T
1179.25 131.861 1179.25 125.144 1179.25 96.8195 T
1179.19 135.885 1179.25 131.861 1179.25 96.8195 T
1179.02 139.637 1179.19 135.885 1179.25 96.8195 T
1178.74 143.117 1179.02 139.637 1179.25 96.8195 T
1178.63 88.3415 1178.74 143.117 1179.25 96.8195 T
1178.35 146.324 1178.74 143.117 1178.63 88.3415 T
1177.85 149.261 1178.35 146.324 1178.63 88.3415 T
1177.23 152.043 1177.85 149.261 1178.63 88.3415 T
1176.77 80.485 1177.23 152.043 1178.63 88.3415 T
1176.47 154.79 1177.23 152.043 1176.77 80.485 T
1175.59 157.501 1176.47 154.79 1176.77 80.485 T
1174.57 160.176 1175.59 157.501 1176.77 80.485 T
1173.68 73.2501 1174.57 160.176 1176.77 80.485 T
1173.68 73.2501 1173.42 162.816 1174.57 160.176 T
1170.83 167.69 1173.42 162.816 1173.68 73.2501 T
1169.34 66.6367 1170.83 167.69 1173.68 73.2501 T
1167.77 172.116 1170.83 167.69 1169.34 66.6367 T
1164.25 176.094 1167.77 172.116 1169.34 66.6367 T
1163.77 60.6448 1164.25 176.094 1169.34 66.6367 T
1160.27 179.623 1164.25 176.094 1163.77 60.6448 T
1157.23 55.5318 1160.27 179.623 1163.77 60.6448 T
1155.82 182.704 1160.27 179.623 1157.23 55.5318 T
1151.02 185.275 1155.82 182.704 1157.23 55.5318 T
1143.76 100.744 1143.76 131.861 1150.01 51.555 T
1143.51 97.1901 1143.76 100.744 1150.01 51.555 T
1142.78 93.9077 1143.51 97.1901 1150.01 51.555 T
1142.09 48.7145 1142.78 93.9077 1150.01 51.555 T
1141.55 90.8972 1142.78 93.9077 1142.09 48.7145 T
1139.82 88.1586 1141.55 90.8972 1142.09 48.7145 T
1137.61 85.6919 1139.82 88.1586 1142.09 48.7145 T
1135 83.5943 1137.61 85.6919 1142.09 48.7145 T
1133.48 47.0102 1135 83.5943 1142.09 48.7145 T
1132.1 81.9628 1135 83.5943 1133.48 47.0102 T
1128.9 80.7974 1132.1 81.9628 1133.48 47.0102 T
1125.41 80.0982 1128.9 80.7974 1133.48 47.0102 T
1124.18 46.442 1125.41 80.0982 1133.48 47.0102 T
1122.44 46.4736 1125.41 80.0982 1124.18 46.442 T
1121.63 79.8651 1125.41 80.0982 1122.44 46.4736 T
1120.74 46.5683 1121.63 79.8651 1122.44 46.4736 T
1120.26 79.8983 1121.63 79.8651 1120.74 46.5683 T
1119.08 46.7261 1120.26 79.8983 1120.74 46.5683 T
1118.9 79.9979 1120.26 79.8983 1119.08 46.7261 T
1117.56 80.1638 1118.9 79.9979 1119.08 46.7261 T
1117.44 46.947 1117.56 80.1638 1119.08 46.7261 T
1116.23 80.396 1117.56 80.1638 1117.44 46.947 T
1115.84 47.2311 1116.23 80.396 1117.44 46.947 T
1114.91 80.6946 1116.23 80.396 1115.84 47.2311 T
1114.26 47.5799 1114.91 80.6946 1115.84 47.2311 T
1113.58 81.0612 1114.91 80.6946 1114.26 47.5799 T
1112.68 47.995 1113.58 81.0612 1114.26 47.5799 T
1112.23 81.4975 1113.58 81.0612 1112.68 47.995 T
1111.11 48.4766 1112.23 81.4975 1112.68 47.995 T
1110.85 82.0032 1112.23 81.4975 1111.11 48.4766 T
1109.55 49.0244 1110.85 82.0032 1111.11 48.4766 T
1109.43 82.5786 1110.85 82.0032 1109.55 49.0244 T
1107.99 83.2236 1109.43 82.5786 1109.55 49.0244 T
1135.31 96.4043 1135.24 129.874 1135.99 130.126 T
1136.76 96.8195 1135.31 96.4043 1135.99 130.126 T
1136.76 130.404 1136.76 96.8195 1135.99 130.126 T
1133.88 96.0329 1133.8 129.446 1134.51 129.647 T
1135.31 96.4043 1133.88 96.0329 1134.51 129.647 T
1135.24 129.874 1135.31 96.4043 1134.51 129.647 T
1132.46 95.7051 1132.42 129.126 1133.1 129.271 T
1133.88 96.0329 1132.46 95.7051 1133.1 129.271 T
1133.8 129.446 1133.88 96.0329 1133.1 129.271 T
1132.46 95.7051 1131.75 129.012 1132.42 129.126 T
1131.1 128.932 1131.75 129.012 1132.46 95.7051 T
1131.05 95.421 1131.1 128.932 1132.46 95.7051 T
1130.46 128.883 1131.1 128.932 1131.05 95.421 T
1129.84 128.867 1130.46 128.883 1131.05 95.421 T
1127.49 129.007 1126.92 94.8311 1125.57 94.7218 T
1128.28 94.984 1126.92 94.8311 1127.49 129.007 T
1129.84 128.867 1128.28 94.984 1127.49 129.007 T
1129.66 95.1807 1128.28 94.984 1129.84 128.867 T
1131.05 95.421 1129.66 95.1807 1129.84 128.867 T
1123.32 130.127 1122.92 94.6344 1121.5 131.107 T
1124.24 94.6563 1122.92 94.6344 1123.32 130.127 T
1125.31 129.427 1124.24 94.6563 1123.32 130.127 T
1125.57 94.7218 1124.24 94.6563 1125.31 129.427 T
1127.49 129.007 1125.57 94.7218 1125.31 129.427 T
1119.87 132.367 1121.5 131.107 1122.92 94.6344 T
1118.48 133.849 1119.87 132.367 1122.92 94.6344 T
1117.39 135.494 1118.48 133.849 1122.92 94.6344 T
1107.99 49.6387 1107.99 83.2236 1109.55 49.0244 T
1157.23 55.5318 1150.01 51.555 1151.02 185.275 T
grestore
showpage
cleartomark
%%PageTrailer
%%Trailer
end
%%EOF
